Date,DG
1992-02-01,114535
1992-03-01,120025
1992-04-01,124470
1992-05-01,125822
1992-06-01,122834
1992-07-01,122590
1992-08-01,120411
1992-09-01,120711
1992-10-01,127392
1992-11-01,122374
1992-12-01,126080
1993-01-01,121637
1993-02-01,128854
1993-03-01,126762
1993-04-01,127395
1993-05-01,126529
1993-06-01,130212
1993-07-01,128111
1993-08-01,129378
1993-09-01,127233
1993-10-01,133168
1993-11-01,130391
1993-12-01,133565
1994-01-01,138498
1994-02-01,137141
1994-03-01,136548
1994-04-01,140336
1994-05-01,142630
1994-06-01,145063
1994-07-01,145013
1994-08-01,145884
1994-09-01,145487
1994-10-01,149547
1994-11-01,150038
1994-12-01,152489
1995-01-01,150459
1995-02-01,153856
1995-03-01,152888
1995-04-01,151401
1995-05-01,152838
1995-06-01,150051
1995-07-01,148915
1995-08-01,154372
1995-09-01,160175
1995-10-01,155473
1995-11-01,156146
1995-12-01,163279
1996-01-01,155806
1996-02-01,150773
1996-03-01,164976
1996-04-01,156830
1996-05-01,164502
1996-06-01,164599
1996-07-01,163588
1996-08-01,157310
1996-09-01,165442
1996-10-01,165266
1996-11-01,170783
1996-12-01,162332
1997-01-01,161815
1997-02-01,170234
1997-03-01,167642
1997-04-01,173925
1997-05-01,168662
1997-06-01,174819
1997-07-01,178798
1997-08-01,177318
1997-09-01,177920
1997-10-01,177722
1997-11-01,191133
1997-12-01,173851
1998-01-01,174315
1998-02-01,181226
1998-03-01,176987
1998-04-01,180720
1998-05-01,180703
1998-06-01,172230
1998-07-01,170514
1998-08-01,179096
1998-09-01,181385
1998-10-01,178401
1998-11-01,182461
1998-12-01,178376
1999-01-01,186641
1999-02-01,185459
1999-03-01,184837
1999-04-01,182831
1999-05-01,186005
1999-06-01,182587
1999-07-01,189203
1999-08-01,189435
1999-09-01,188824
1999-10-01,194481
1999-11-01,186625
1999-12-01,196253
2000-01-01,201518
2000-02-01,183824
2000-03-01,192218
2000-04-01,194837
2000-05-01,188796
2000-06-01,219797
2000-07-01,189409
2000-08-01,188712
2000-09-01,199927
2000-10-01,186164
2000-11-01,189209
2000-12-01,188479
2001-01-01,177281
2001-02-01,180244
2001-03-01,182151
2001-04-01,171699
2001-05-01,177677
2001-06-01,176414
2001-07-01,170315
2001-08-01,170530
2001-09-01,164120
2001-10-01,171632
2001-11-01,163628
2001-12-01,165164
2002-01-01,162611
2002-02-01,171186
2002-03-01,168658
2002-04-01,171070
2002-05-01,172689
2002-06-01,165909
2002-07-01,174971
2002-08-01,177661
2002-09-01,168024
2002-10-01,167444
2002-11-01,170400
2002-12-01,163243
2003-01-01,169256
2003-02-01,172894
2003-03-01,173255
2003-04-01,169379
2003-05-01,171118
2003-06-01,174222
2003-07-01,173107
2003-08-01,174406
2003-09-01,178217
2003-10-01,183356
2003-11-01,182112
2003-12-01,181003
2004-01-01,176956
2004-02-01,180501
2004-03-01,191675
2004-04-01,184064
2004-05-01,183500
2004-06-01,185515
2004-07-01,187265
2004-08-01,185326
2004-09-01,188107
2004-10-01,185726
2004-11-01,192739
2004-12-01,192683
2005-01-01,193362
2005-02-01,195032
2005-03-01,187050
2005-04-01,195011
2005-05-01,206306
2005-06-01,209078
2005-07-01,197379
2005-08-01,205223
2005-09-01,204281
2005-10-01,209892
2005-11-01,222367
2005-12-01,219888
2006-01-01,207767
2006-02-01,217518
2006-03-01,227782
2006-04-01,214220
2006-05-01,215787
2006-06-01,221022
2006-07-01,212237
2006-08-01,210705
2006-09-01,236173
2006-10-01,217027
2006-11-01,225701
2006-12-01,229241
2007-01-01,218760
2007-02-01,221076
2007-03-01,228689
2007-04-01,233533
2007-05-01,227310
2007-06-01,229692
2007-07-01,239281
2007-08-01,233946
2007-09-01,225996
2007-10-01,229265
2007-11-01,232492
2007-12-01,242568
2008-01-01,237095
2008-02-01,233566
2008-03-01,230485
2008-04-01,229643
2008-05-01,230069
2008-06-01,229259
2008-07-01,224259
2008-08-01,217064
2008-09-01,211101
2008-10-01,192047
2008-11-01,183919
2008-12-01,173398
2009-01-01,152945
2009-02-01,145057
2009-03-01,144836
2009-04-01,143798
2009-05-01,150316
2009-06-01,145398
2009-07-01,156288
2009-08-01,157920
2009-09-01,156902
2009-10-01,162351
2009-11-01,161451
2009-12-01,158417
2010-01-01,181928
2010-02-01,175894
2010-03-01,179486
2010-04-01,187167
2010-05-01,186163
2010-06-01,185861
2010-07-01,189993
2010-08-01,192128
2010-09-01,199805
2010-10-01,194468
2010-11-01,196289
2010-12-01,193718
2011-01-01,204156
2011-02-01,193472
2011-03-01,210603
2011-04-01,200245
2011-05-01,205798
2011-06-01,198954
2011-07-01,208723
2011-08-01,215179
2011-09-01,207654
2011-10-01,208098
2011-11-01,216765
2011-12-01,226170
2012-01-01,226235
2012-02-01,225020
2012-03-01,222518
2012-04-01,221305
2012-05-01,218602
2012-06-01,221630
2012-07-01,227816
2012-08-01,203687
2012-09-01,216361
2012-10-01,220866
2012-11-01,219347
2012-12-01,229722
2013-01-01,219312
2013-02-01,230445
2013-03-01,212088
2013-04-01,221262
2013-05-01,230339
2013-06-01,239960
2013-07-01,218282
2013-08-01,219764
2013-09-01,228991
2013-10-01,224735
2013-11-01,237387
2013-12-01,228487
2014-01-01,226163
2014-02-01,232804
2014-03-01,238347
2014-04-01,241137
2014-05-01,234842
2014-06-01,242127
2014-07-01,299868
2014-08-01,241789
2014-09-01,238191
2014-10-01,237754
2014-11-01,235940
2014-12-01,226739
2015-01-01,233371
2015-02-01,225263
2015-03-01,236671
2015-04-01,232569
2015-05-01,227279
2015-06-01,236611
2015-07-01,241044
2015-08-01,233960
2015-09-01,232015
2015-10-01,238619
2015-11-01,237380
2015-12-01,226391
2016-01-01,236102
2016-02-01,228843
2016-03-01,230585